Musical scales
…
#> [1] "d"   "e"   "f"   "g"   "a"   "b_"  "d_4" NA

note_in_scale("a_ b c", "a_", ignore_octave = TRUE)

#> [1]  TRUE FALSE  TRUE

Other functions in tabr also work with scales and some build upon functions introduced here.

Musical intervals

Musical intervals can be referenced by a name or a numeric value defining the separation of two notes. interval_semitones returns a positive integer describing the number of semitones spanned by a common interval. It takes a name or abbreviation of a common interval as input. Essentially, any entry from any other column in the mainIntervals dataset can be used to obtain the interval in semitones. It’s a simple filter and match, but it is convenient to map between different representations of the same property in tabr without typing the extra bit of code to do so each time.

mainIntervals

#> # A tibble: 26 x 5
#>    semitones mmp            mmp_abb ad                               ad_abb
#>        <int> <chr>          <chr>   <chr>                            <chr> 
#>  1         0 perfect unison P1      diminished second                d2    
#>  2         1 minor second   m2      augmented unison                 A1    
#>  3         2 major second   M2      diminished third                 d3    
#>  4         3 minor third    m3      augmented second                 A2    
#>  5         4 major third    M3      diminished fourth                d4    
#>  6         5 perfect fourth P4      augmented third                  A3    
#>  7         6 tritone        TT      diminished fifth/augmented four~ d5/A4 
#>  8         7 perfect fifth  P5      diminished sixth                 d6    
#>  9         8 minor sixth    m6      augmented fifth                  A5    
#> 10         9 major sixth    M6      diminished seventh               d7    
#> # ... with 16 more rows
…
